M48
; DRILL file {KiCad (6.0.8)} date Tue Oct 25 11:15:41 2022
; FORMAT={-:-/ absolute / metric / decimal}
; #@! TF.CreationDate,2022-10-25T11:15:41-07:00
; #@! TF.GenerationSoftware,Kicad,Pcbnew,(6.0.8)
; #@! TF.FileFunction,Plated,1,2,PTH
FMAT,2
METRIC
; #@! TA.AperFunction,Plated,PTH,ViaDrill
T1C0.400
; #@! TA.AperFunction,Plated,PTH,ComponentDrill
T2C0.600
; #@! TA.AperFunction,Plated,PTH,ComponentDrill
T3C1.700
; #@! TA.AperFunction,Plated,PTH,ComponentDrill
T4C1.780
%
G90
G05
T1
X21.634Y77.172
X36.664Y70.792
X55.924Y77.172
T3
X10.0Y11.159
X10.0Y3.539
X10.03Y53.864
X10.03Y46.244
X30.0Y11.159
X30.0Y3.539
X30.03Y53.864
X30.03Y46.244
X50.0Y11.032
X50.0Y3.412
X50.03Y53.737
X50.03Y46.117
X70.0Y11.032
X70.0Y3.412
X70.03Y53.737
X70.03Y46.117
T4
X10.07Y38.59
X30.07Y38.59
X50.07Y38.462
X70.07Y38.462
T2
G00X34.84Y79.217
M15
G01X34.84Y79.817
M16
G05
G00X34.84Y74.787
M15
G01X34.84Y75.887
M16
G05
G00X43.48Y79.217
M15
G01X43.48Y79.817
M16
G05
G00X43.48Y74.787
M15
G01X43.48Y75.887
M16
G05
T0
M30
